2 Palavras, morfemas e tokens – Laboratórios de Análise de Discurso Político
…
$sumario
$sumario[[1]]
[1] "A Deputada repudiou a emissão de visto com marcação de gênero masculino à Deputada Erika Hilton pelo Consulado dos Estados Unidos, classificando o ato como discriminatório e contrário ao ordenamento jurídico brasileiro. Ressaltou que a decisão do Supremo Tribunal Federal (STF) na Ação Direta de Inconstitucionalidade (ADI) nº 4.275 garante o direito à retificação de nome e gênero com base na dignidade da pessoa humana. Destacou que Brasil e Estados Unidos são signatários de acordos internacionais que asseguram a proteção da identidade de gênero e afirmou que o episódio configura grave violação diplomática. Defendeu o respeito à cidadania das pessoas trans e à diversidade nas instituições, reafirmando o compromisso do Governo com os direitos humanos. Por fim, enfatizou que a bancada feminina é diversa e unida pela garantia da dignidade e da identidade de todas as Parlamentares."

Podemos transformar os dados em data frame (tibble) para facilitar a manipulação:

df_sessoes <- dados_sessoes[[1]] |>
  map(as_tibble) |>   # converter cada elemento da lista em tibble
  bind_rows()         # combinar os tibbles em um único tibble

print(df_sessoes)

# A tibble: 22 × 5
   codigo    data      numero    tipo      fasesSessao     
   <list>    <list>    <list>    <list>    <named list>    
 1 <chr [1]> <chr [1]> <chr [1]> <chr [1]> <named list [3]>
 2 <chr [1]> <chr [1]> <chr [1]> <chr [1]> <named list [3]>
 3 <chr [1]> <chr [1]> <chr [1]> <chr [1]> <named list [3]>
 4 <chr [1]> <chr [1]> <chr [1]> <chr [1]> <named list [3]>
 5 <chr [1]> <chr [1]> <chr [1]> <chr [1]> <named list [3]>
 6 <chr [1]> <chr [1]> <chr [1]> <chr [1]> <named list [3]>
 7 <chr [1]> <chr [1]> <chr [1]> <chr [1]> <named list [3]>
 8 <chr [1]> <chr [1]> <chr [1]> <chr [1]> <named list [3]>
 9 <chr [1]> <chr [1]> <chr [1]> <chr [1]> <named list [3]>
10 <chr [1]> <chr [1]> <chr [1]> <chr [1]> <named list [3]>
# ℹ 12 more rows

Como os dados estão aninhados (sessões > fases > discursos), precisamos expandir os dados em linhas e colunas:

df_sessoes <- df_sessoes |>
  unnest_wider(fasesSessao, names_sep = '_') |>                  # expandir a dados de fases em colunas 
  unnest(fasesSessao_discursos) |>                               # expandir discursos em linhas
  unnest_wider(fasesSessao_discursos, names_sep = '_') |>        # expandir dados de discurso em colunas
  unnest_wider(fasesSessao_discursos_orador, names_sep = '_') |> # expandir dados de orador em colunas separadas
  mutate_all(compose(str_trim, unlist))                          # remover espaços em branco e converter listas em caracteres

print(df_sessoes)

# A tibble: 1,805 × 15
   codigo  data       numero tipo       fasesSessao_codigo fasesSessao_descricao
   <chr>   <chr>      <chr>  <chr>      <chr>              <chr>                
 1 64.2025 30/04/2025 2      Ordinária… BC                 Breves Comunicações  
 2 64.2025 30/04/2025 2      Ordinária… BC                 Breves Comunicações  
 3 64.2025 30/04/2025 2      Ordinária… BC                 Breves Comunicações  
 4 64.2025 30/04/2025 2      Ordinária… BC                 Breves Comunicações  
 5 64.2025 30/04/2025 2      Ordinária… BC                 Breves Comunicações  
 6 64.2025 30/04/2025 2      Ordinária… BC                 Breves Comunicações  
 7 64.2025 30/04/2025 2      Ordinária… BC                 Breves Comunicações  
 8 64.2025 30/04/2025 2      Ordinária… BC                 Breves Comunicações  
 9 64.2025 30/04/2025 2      Ordinária… BC                 Breves Comunicações  
10 64.2025 30/04/2025 2      Ordinária… BC                 Breves Comunicações  
# ℹ 1,795 more rows
# ℹ 9 more variables: fasesSessao_discursos_orador_numero <chr>,
#   fasesSessao_discursos_orador_nome <chr>,
#   fasesSessao_discursos_orador_partido <chr>,
#   fasesSessao_discursos_orador_uf <chr>,
#   fasesSessao_discursos_horaInicioDiscurso <chr>,
#   fasesSessao_discursos_txtIndexacao <chr>, …
…
print(df_sessoes)

# A tibble: 1,805 × 16
   codigo  data       numero tipo  cod_sessao fase_sessao num_orador nome_orador
   <chr>   <chr>      <chr>  <chr> <chr>      <chr>       <chr>      <chr>      
 1 64.2025 30/04/2025 2      Ordi… BC         Breves Com… 1          Benedita d…
 2 64.2025 30/04/2025 2      Ordi… BC         Breves Com… 1          Luiz Lima  
 3 64.2025 30/04/2025 2      Ordi… BC         Breves Com… 1          Otoni de P…
 4 64.2025 30/04/2025 2      Ordi… BC         Breves Com… 1          Sargento F…
 5 64.2025 30/04/2025 2      Ordi… BC         Breves Com… 1          Cabo Gilbe…
 6 64.2025 30/04/2025 2      Ordi… BC         Breves Com… 1          Helder Sal…
 7 64.2025 30/04/2025 2      Ordi… BC         Breves Com… 1          Ricardo Ma…
 8 64.2025 30/04/2025 2      Ordi… BC         Breves Com… 1          Rogério Co…
 9 64.2025 30/04/2025 2      Ordi… BC         Breves Com… 1          Helder Sal…
10 64.2025 30/04/2025 2      Ordi… BC         Breves Com… 1          Coronel As…
# ℹ 1,795 more rows
# ℹ 8 more variables: partido_orador <chr>, uf_orador <chr>,
#   hora_inicio_discurso <chr>, indexacao <chr>, num_quarto <chr>,
#   num_insercao <chr>, text <chr>, doc_id <chr>
…
